{
  "new_entries": {
    "has_next": false,
    "page": 1,
    "results": []
  },
  "last_updated_data": "2022-05-22T18:33:38Z",
  "league": {
    "id": 11,
    "name": "Liverpool",
    "created": "2021-06-22T10:37:33.072878Z",
    "closed": false,
    "max_entries": null,
    "league_type": "s",
    "scoring": "c",
    "admin_entry": null,
    "start_event": 1,
    "code_privacy": "p",
    "has_cup": true,
    "cup_league": 2400372,
    "rank": null
  },
  "standings": {
    "has_next": true,
    "page": 1,
    "results": [
      {
        "id": 1096388,
        "event_total": 61,
        "player_name": "Bino Baby",
        "rank": 1,
        "last_rank": 1,
        "rank_sort": 1,
        "total": 2824,
        "entry": 207377,
        "entry_name": "Tai Lung"
      },
      {
        "id": 847990,
        "event_total": 69,
        "player_name": "Roy Lee",
        "rank": 2,
        "last_rank": 2,
        "rank_sort": 2,
        "total": 2815,
        "entry": 162869,
        "entry_name": "Gamcholia"
      },
      {
        "id": 37252,
        "event_total": 69,
        "player_name": "Eslam Taha",
        "rank": 3,
        "last_rank": 3,
        "rank_sort": 3,
        "total": 2812,
        "entry": 7841,
        "entry_name": "WeareallIdrissa"
      },
      {
        "id": 402594,
        "event_total": 81,
        "player_name": "Joacim Lengroth",
        "rank": 4,
        "last_rank": 6,
        "rank_sort": 4,
        "total": 2809,
        "entry": 77967,
        "entry_name": "Artisterna"
      },
      {
        "id": 71945,
        "event_total": 91,
        "player_name": "Olle Sellen",
        "rank": 5,
        "last_rank": 9,
        "rank_sort": 5,
        "total": 2802,
        "entry": 14225,
        "entry_name": "OS Truppen"
      },
      {
        "id": 860827,
        "event_total": 82,
        "player_name": "Ian Quinn",
        "rank": 6,
        "last_rank": 7,
        "rank_sort": 6,
        "total": 2801,
        "entry": 165401,
        "entry_name": "Quinner’s Winners"
      },
      {
        "id": 30404198,
        "event_total": 61,
        "player_name": "Jeffrey Dingley",
        "rank": 7,
        "last_rank": 4,
        "rank_sort": 7,
        "total": 2795,
        "entry": 4537756,
        "entry_name": "JPD"
      },
      {
        "id": 1579484,
        "event_total": 83,
        "player_name": "Troy Hope",
        "rank": 8,
        "last_rank": 8,
        "rank_sort": 8,
        "total": 2791,
        "entry": 298337,
        "entry_name": "Lucky Prophet"
      },
      {
        "id": 34014,
        "event_total": 72,
        "player_name": "Patrick Mathias",
        "rank": 9,
        "last_rank": 10,
        "rank_sort": 9,
        "total": 2778,
        "entry": 7267,
        "entry_name": "Ted Benteke"
      },
      {
        "id": 9865,
        "event_total": 50,
        "player_name": "Daniel Masson-Abraham",
        "rank": 10,
        "last_rank": 5,
        "rank_sort": 10,
        "total": 2775,
        "entry": 2335,
        "entry_name": "Gangster's Allardyce"
      },
      {
        "id": 5494699,
        "event_total": 77,
        "player_name": "Andres Bäckblom",
        "rank": 11,
        "last_rank": 14,
        "rank_sort": 11,
        "total": 2767,
        "entry": 1028842,
        "entry_name": "FC PitStone"
      },
      {
        "id": 9323204,
        "event_total": 65,
        "player_name": "Brett Morinaka",
        "rank": 12,
        "last_rank": 11,
        "rank_sort": 12,
        "total": 2765,
        "entry": 1686771,
        "entry_name": "B"
      },
      {
        "id": 4660950,
        "event_total": 75,
        "player_name": "Yazan ar",
        "rank": 13,
        "last_rank": 13,
        "rank_sort": 13,
        "total": 2765,
        "entry": 874814,
        "entry_name": "zoz"
      },
      {
        "id": 9028790,
        "event_total": 70,
        "player_name": "Liam Cosbey",
        "rank": 14,
        "last_rank": 15,
        "rank_sort": 14,
        "total": 2761,
        "entry": 1636143,
        "entry_name": "Klopptimus Prime"
      },
      {
        "id": 1301745,
        "event_total": 101,
        "player_name": "Jarle Emblem",
        "rank": 15,
        "last_rank": 47,
        "rank_sort": 15,
        "total": 2761,
        "entry": 245387,
        "entry_name": "The A-Team"
      },
      {
        "id": 10591538,
        "event_total": 74,
        "player_name": "Panos Anastopoulos",
        "rank": 16,
        "last_rank": 21,
        "rank_sort": 16,
        "total": 2755,
        "entry": 1891553,
        "entry_name": "Koupatoi-PCLW"
      },
      {
        "id": 42571097,
        "event_total": 65,
        "player_name": "Ahm Fah.da",
        "rank": 17,
        "last_rank": 17,
        "rank_sort": 17,
        "total": 2755,
        "entry": 6062035,
        "entry_name": "newyork"
      },
      {
        "id": 1829479,
        "event_total": 76,
        "player_name": "Grant Semple",
        "rank": 18,
        "last_rank": 25,
        "rank_sort": 18,
        "total": 2754,
        "entry": 344405,
        "entry_name": "Bentekeet Up Dias FC"
      },
      {
        "id": 2644250,
        "event_total": 60,
        "player_name": "Per Lauvvang",
        "rank": 19,
        "last_rank": 12,
        "rank_sort": 19,
        "total": 2754,
        "entry": 498694,
        "entry_name": "Team Volo"
      },
      {
        "id": 1406504,
        "event_total": 72,
        "player_name": "Kim-Tonny Henriksen",
        "rank": 20,
        "last_rank": 22,
        "rank_sort": 20,
        "total": 2753,
        "entry": 265853,
        "entry_name": "Tonny's Toney Tunes"
      },
      {
        "id": 590903,
        "event_total": 85,
        "player_name": "Chris Turner",
        "rank": 21,
        "last_rank": 34,
        "rank_sort": 21,
        "total": 2752,
        "entry": 113314,
        "entry_name": "The Brothers Grimsby"
      },
      {
        "id": 24848346,
        "event_total": 88,
        "player_name": "Tom Jeffries",
        "rank": 22,
        "last_rank": 48,
        "rank_sort": 22,
        "total": 2751,
        "entry": 3809852,
        "entry_name": "Birmingham Bad Boys"
      },
      {
        "id": 17249816,
        "event_total": 77,
        "player_name": "Anders Dugstad",
        "rank": 23,
        "last_rank": 29,
        "rank_sort": 23,
        "total": 2751,
        "entry": 2903808,
        "entry_name": "Oles Brummser"
      },
      {
        "id": 8226470,
        "event_total": 61,
        "player_name": "Didrik Seland",
        "rank": 24,
        "last_rank": 16,
        "rank_sort": 24,
        "total": 2751,
        "entry": 1497625,
        "entry_name": "Fredrikstads sønner"
      },
      {
        "id": 38683,
        "event_total": 74,
        "player_name": "Arvid Hedlund",
        "rank": 25,
        "last_rank": 23,
        "rank_sort": 25,
        "total": 2751,
        "entry": 8092,
        "entry_name": "Lazar tribute act"
      },
      {
        "id": 27621208,
        "event_total": 92,
        "player_name": "Mohammed Zaazaa",
        "rank": 26,
        "last_rank": 62,
        "rank_sort": 26,
        "total": 2750,
        "entry": 4171797,
        "entry_name": "Zaza"
      },
      {
        "id": 13348457,
        "event_total": 71,
        "player_name": "Andy Abrahamsen",
        "rank": 27,
        "last_rank": 26,
        "rank_sort": 27,
        "total": 2747,
        "entry": 2328516,
        "entry_name": "AAFC"
      },
      {
        "id": 3378207,
        "event_total": 94,
        "player_name": "Jaren Ong",
        "rank": 28,
        "last_rank": 63,
        "rank_sort": 28,
        "total": 2747,
        "entry": 638409,
        "entry_name": "Little Dancer"
      },
      {
        "id": 14140,
        "event_total": 78,
        "player_name": "Paulius Uziela",
        "rank": 29,
        "last_rank": 40,
        "rank_sort": 29,
        "total": 2746,
        "entry": 3178,
        "entry_name": "Slava Ukraini!"
      },
      {
        "id": 16490334,
        "event_total": 90,
        "player_name": "Andrew Burt",
        "rank": 30,
        "last_rank": 64,
        "rank_sort": 30,
        "total": 2746,
        "entry": 2800312,
        "entry_name": "Burt’s Renegades"
      },
      {
        "id": 27989,
        "event_total": 63,
        "player_name": "Milko Yovchev",
        "rank": 31,
        "last_rank": 20,
        "rank_sort": 31,
        "total": 2745,
        "entry": 5995,
        "entry_name": "Lost Boyz"
      },
      {
        "id": 2551151,
        "event_total": 62,
        "player_name": "Fredrik Tellefsen",
        "rank": 32,
        "last_rank": 19,
        "rank_sort": 32,
        "total": 2744,
        "entry": 480616,
        "entry_name": "Freddzon"
      },
      {
        "id": 8626291,
        "event_total": 82,
        "player_name": "Key Sar",
        "rank": 33,
        "last_rank": 37,
        "rank_sort": 33,
        "total": 2744,
        "entry": 1565208,
        "entry_name": "MishMash"
      },
      {
        "id": 2193781,
        "event_total": 60,
        "player_name": "Preston Retzlaff",
        "rank": 34,
        "last_rank": 18,
        "rank_sort": 34,
        "total": 2743,
        "entry": 411372,
        "entry_name": "[Redacted]"
      },
      {
        "id": 258677,
        "event_total": 67,
        "player_name": "Magnus Markussen",
        "rank": 35,
        "last_rank": 28,
        "rank_sort": 35,
        "total": 2742,
        "entry": 50393,
        "entry_name": "I've got a BIG DIJK"
      },
      {
        "id": 1683511,
        "event_total": 93,
        "player_name": "Torbjørn Lønne Lunden",
        "rank": 36,
        "last_rank": 94,
        "rank_sort": 36,
        "total": 2741,
        "entry": 316872,
        "entry_name": "Det er den draumen"
      },
      {
        "id": 10273,
        "event_total": 81,
        "player_name": "Matt g",
        "rank": 37,
        "last_rank": 57,
        "rank_sort": 37,
        "total": 2739,
        "entry": 2408,
        "entry_name": "Lechero de Marbella"
      },
      {
        "id": 168114,
        "event_total": 89,
        "player_name": "A7md Fa5rry",
        "rank": 38,
        "last_rank": 60,
        "rank_sort": 38,
        "total": 2739,
        "entry": 33035,
        "entry_name": "روحوا ناموا بتحلموا"
      },
      {
        "id": 19201,
        "event_total": 75,
        "player_name": "Sam Hackett",
        "rank": 39,
        "last_rank": 49,
        "rank_sort": 39,
        "total": 2738,
        "entry": 4245,
        "entry_name": "Klopps and robbers"
      },
      {
        "id": 37565255,
        "event_total": 66,
        "player_name": "conor bryson",
        "rank": 40,
        "last_rank": 24,
        "rank_sort": 40,
        "total": 2738,
        "entry": 5451619,
        "entry_name": "Conor Bryson"
      },
      {
        "id": 461623,
        "event_total": 66,
        "player_name": "Patryk Kolczak",
        "rank": 41,
        "last_rank": 32,
        "rank_sort": 41,
        "total": 2737,
        "entry": 88737,
        "entry_name": "bezdomki"
      },
      {
        "id": 11626722,
        "event_total": 88,
        "player_name": "Mona Christine Berge",
        "rank": 42,
        "last_rank": 77,
        "rank_sort": 42,
        "total": 2736,
        "entry": 2056445,
        "entry_name": "Ebba"
      },
      {
        "id": 84299,
        "event_total": 84,
        "player_name": "Ayad Ahmad",
        "rank": 43,
        "last_rank": 67,
        "rank_sort": 43,
        "total": 2736,
        "entry": 16583,
        "entry_name": "عياد ليفر"
      },
      {
        "id": 23681364,
        "event_total": 65,
        "player_name": "Ahmed El Araby",
        "rank": 44,
        "last_rank": 35,
        "rank_sort": 44,
        "total": 2735,
        "entry": 3652721,
        "entry_name": "No God But Allah"
      },
      {
        "id": 4589836,
        "event_total": 73,
        "player_name": "Marco Chiotti",
        "rank": 45,
        "last_rank": 50,
        "rank_sort": 45,
        "total": 2735,
        "entry": 861290,
        "entry_name": "In bocca al lupo"
      },
      {
        "id": 27925,
        "event_total": 64,
        "player_name": "Rob Glasser",
        "rank": 46,
        "last_rank": 33,
        "rank_sort": 46,
        "total": 2735,
        "entry": 5980,
        "entry_name": "You don’t Luke Shaw"
      },
      {
        "id": 420148,
        "event_total": 93,
        "player_name": "Androklis Gregoriou",
        "rank": 47,
        "last_rank": 123,
        "rank_sort": 47,
        "total": 2735,
        "entry": 80978,
        "entry_name": "Ayia Sofia"
      },
      {
        "id": 3492,
        "event_total": 58,
        "player_name": "Andre Jansen",
        "rank": 48,
        "last_rank": 27,
        "rank_sort": 48,
        "total": 2734,
        "entry": 896,
        "entry_name": "Virgil Galactic"
      },
      {
        "id": 3684844,
        "event_total": 73,
        "player_name": "Matthys Laubscher",
        "rank": 49,
        "last_rank": 45,
        "rank_sort": 49,
        "total": 2734,
        "entry": 693699,
        "entry_name": "Vloek15"
      },
      {
        "id": 911609,
        "event_total": 93,
        "player_name": "Kamal Thapa",
        "rank": 50,
        "last_rank": 118,
        "rank_sort": 50,
        "total": 2734,
        "entry": 174550,
        "entry_name": "bindas fc"
      }
    ]
  }
}